The EITC and diff-in-diff
…
Run a new regression model with demographic controls. Eissa and Liebman used the following in their original study: non-labor income (family income minus personal earnings, or the unearn column), number of children, race, age, age squared, education, and education squared. You’ll need to make new variables for age squared and education squared. (These are squared because higher values of age and education might have a greater effect: someone with 4 years of education would have 16 squared years, while someone with 8 years (twice as much) would have 64 squared years (way more than twice as much).)

# Make new dataset with columns for age squared and education squared
# Regression model with demographic controls here
#
# R tends to put interaction terms last in regression tables, so you might not
# see the any_kids * after_1993 coefficient on the first page of the table here

eitc_squared <- eitc |> 
  mutate(age_squared = age^2,
         education_squared = unearn^2)
print(eitc_squared)

# A tibble: 13,746 × 16
   state  year urate children nonwhite   finc   earn   age    ed  work unearn
   <dbl> <dbl> <dbl>    <dbl>    <dbl>  <dbl>  <dbl> <dbl> <dbl> <dbl>  <dbl>
 1    11  1991  7.60        0        1 18714. 18714.    26    10     1  0    
 2    12  1991  7.20        1        0  4839.   471.    22     9     1  4.37 
 3    13  1991  6.40        2        0  8178.     0     33    11     0  8.18 
 4    14  1991  9.10        0        1  9370.     0     43    11     0  9.37 
 5    15  1991  8.60        3        1 14707. 14707.    23     7     1  0    
 6    16  1991  6.80        1        0 21605. 18855.    53     7     1  2.75 
 7    21  1991  7.30        0        1 19147. 14141.    52    11     1  5.01 
 8    22  1991  6.70        0        1 64312. 63803.    51    11     1  0.509
 9    23  1991  7           1        1 17676. 17676.    20    11     1  0    
10    31  1991  6.40        2        1 12214.  2358.    32    11     1  9.86 
# ℹ 13,736 more rows
# ℹ 5 more variables: children_cat <chr>, any_kids <lgl>, after_1993 <lgl>,
#   age_squared <dbl>, education_squared <dbl>
…
Does the treatment effect change? Interpret these findings. After controlling for the demographics.the diff-and diff estimate is larger in this model than it was in the model_eitc_program model .

7. Varying treatment effects

Make two new binary indicator variables showing if the woman has one child or not and two children or not. Name them one_kid and two_plus_kids (hint: use mutate(BLAH = children == SOMETHING).

# Make new dataset with one_kid and two_plus_kids indicator variables
eitc_counting_kids <- eitc_squared |> 
mutate(
  one_kid = children == 1,
  two_plus_kids = children >= 2
)
print(eitc_counting_kids)

# A tibble: 13,746 × 18
   state  year urate children nonwhite   finc   earn   age    ed  work unearn
   <dbl> <dbl> <dbl>    <dbl>    <dbl>  <dbl>  <dbl> <dbl> <dbl> <dbl>  <dbl>
 1    11  1991  7.60        0        1 18714. 18714.    26    10     1  0    
 2    12  1991  7.20        1        0  4839.   471.    22     9     1  4.37 
 3    13  1991  6.40        2        0  8178.     0     33    11     0  8.18 
 4    14  1991  9.10        0        1  9370.     0     43    11     0  9.37 
 5    15  1991  8.60        3        1 14707. 14707.    23     7     1  0    
 6    16  1991  6.80        1        0 21605. 18855.    53     7     1  2.75 
 7    21  1991  7.30        0        1 19147. 14141.    52    11     1  5.01 
 8    22  1991  6.70        0        1 64312. 63803.    51    11     1  0.509
 9    23  1991  7           1        1 17676. 17676.    20    11     1  0    
10    31  1991  6.40        2        1 12214.  2358.    32    11     1  9.86 
# ℹ 13,736 more rows
# ℹ 7 more variables: children_cat <chr>, any_kids <lgl>, after_1993 <lgl>,
#   age_squared <dbl>, education_squared <dbl>, one_kid <lgl>,
#   two_plus_kids <lgl>
…
